E:\mini-football-field-management\mini_football_field_management\UserManagementServices\src\main\java\com\exception\InvalidAccountException.java
E:\mini-football-field-management\mini_football_field_management\UserManagementServices\src\main\java\com\services\management\manager\ServiceManagers.java
E:\mini-football-field-management\mini_football_field_management\UserManagementServices\src\main\java\com\exception\InvalidRequestException.java
E:\mini-football-field-management\mini_football_field_management\UserManagementServices\src\main\java\com\services\config\configAccount.java
E:\mini-football-field-management\mini_football_field_management\UserManagementServices\src\main\java\com\services\management\manager\GetInforManagerService.java
E:\mini-football-field-management\mini_football_field_management\UserManagementServices\src\main\java\com\services\management\member\ServiceGetSumOfMember.java
E:\mini-football-field-management\mini_football_field_management\UserManagementServices\src\main\java\com\services\config\configUsernameForEmployee.java
E:\mini-football-field-management\mini_football_field_management\UserManagementServices\src\main\java\com\services\management\employee\ServiceFindEmployee.java
E:\mini-football-field-management\mini_football_field_management\UserManagementServices\src\main\java\com\services\management\user\ServiceCheckAdmin.java
E:\mini-football-field-management\mini_football_field_management\UserManagementServices\src\main\java\com\services\management\user\rest\restInterface.java
E:\mini-football-field-management\mini_football_field_management\UserManagementServices\src\main\java\com\filter\authentication\ManagerFilter.java
E:\mini-football-field-management\mini_football_field_management\UserManagementServices\src\main\java\com\exception\UnauthorizedException.java
E:\mini-football-field-management\mini_football_field_management\UserManagementServices\src\main\java\com\filter\authentication\AdminrFilter.java
E:\mini-football-field-management\mini_football_field_management\UserManagementServices\src\main\java\com\services\handler\error\expired\JWT\expiredJwt.java
E:\mini-football-field-management\mini_football_field_management\UserManagementServices\src\main\java\com\services\management\member\ServiceMembers.java
E:\mini-football-field-management\mini_football_field_management\UserManagementServices\src\main\java\com\services\management\employee\ServiceEmployees.java
E:\mini-football-field-management\mini_football_field_management\UserManagementServices\src\main\java\com\services\handler\exception\ExceptionHandlerServices.java
E:\mini-football-field-management\mini_football_field_management\UserManagementServices\src\main\java\com\services\handler\error\authentication\AuthenticationError.java
E:\mini-football-field-management\mini_football_field_management\UserManagementServices\src\main\java\com\services\management\user\ServiceCheckManager.java
E:\mini-football-field-management\mini_football_field_management\UserManagementServices\src\main\java\com\services\management\user\ServiceRegister.java
E:\mini-football-field-management\mini_football_field_management\UserManagementServices\src\main\java\com\services\management\user\ServiceCheckMember.java
E:\mini-football-field-management\mini_football_field_management\UserManagementServices\src\main\java\com\services\management\user\ServiceCountAllUser.java
E:\mini-football-field-management\mini_football_field_management\UserManagementServices\src\main\java\com\exception\InvalidManagerException.java
E:\mini-football-field-management\mini_football_field_management\UserManagementServices\src\main\java\com\services\management\member\ServiceUpdateMember.java
E:\mini-football-field-management\mini_football_field_management\UserManagementServices\src\main\java\com\services\management\member\ServicesGetTypeMemberOfMember.java
E:\mini-football-field-management\mini_football_field_management\UserManagementServices\src\main\java\com\services\management\member\ServiceChangeClub.java
E:\mini-football-field-management\mini_football_field_management\UserManagementServices\src\main\java\com\services\management\user\ServiceUsers.java
E:\mini-football-field-management\mini_football_field_management\UserManagementServices\src\main\java\com\services\management\employee\CountEmployee.java
E:\mini-football-field-management\mini_football_field_management\UserManagementServices\src\main\java\com\filter\authentication\MemberFilter.java
E:\mini-football-field-management\mini_football_field_management\UserManagementServices\src\main\java\com\services\management\employee\ServiceWorks.java
E:\mini-football-field-management\mini_football_field_management\UserManagementServices\src\main\java\com\exception\JWTExpirationNotice.java
E:\mini-football-field-management\mini_football_field_management\UserManagementServices\src\main\java\com\exception\InvalidAdminException.java
E:\mini-football-field-management\mini_football_field_management\UserManagementServices\src\main\java\com\filter\allow\CorsFilter.java
E:\mini-football-field-management\mini_football_field_management\UserManagementServices\src\main\java\com\services\management\employee\ServiceGetSumOfEmployee.java
E:\mini-football-field-management\mini_football_field_management\UserManagementServices\src\main\java\com\exception\RequestNotFoundException.java
E:\mini-football-field-management\mini_football_field_management\UserManagementServices\src\main\java\com\services\management\member\ServiceGetMember.java
